step,video
5,Tennis_24fps_scaled_1RP.mp4
6,Tennis_24fps_scaled_3RP.mp4
7,BigBuckBunny_25fps_scaled_2RP.mp4
8,BigBuckBunny_25fps_scaled_4RP.mp4
10,Seeking_25fps_scaled_0RP.mp4
11,Seeking_25fps_scaled_1RP.mp4
12,colour_boats_30fps_scaled_0RP_P1_black.mp4
13,colour_boats_30fps_scaled_1RP_P1_black.mp4
14,Seeking_25fps_scaled_0RP.mp4
15,Seeking_25fps_scaled_1RP.mp4
16,Seeking_25fps_scaled_2RP.mp4
17,Seeking_25fps_scaled_3RP.mp4
18,Seeking_25fps_scaled_4RP.mp4
19,Seeking_25fps_scaled_3RP.mp4
20,Seeking_25fps_scaled_4RP.mp4
21,colour_boats_30fps_scaled_0RP_P1_black.mp4
22,colour_boats_30fps_scaled_1RP_P1_black.mp4
23,colour_boats_30fps_scaled_2RP_P1_black.mp4
24,colour_boats_30fps_scaled_3RP_P1_black.mp4
25,colour_boats_30fps_scaled_4RP_P1_black.mp4
26,colour_boats_30fps_scaled_1RP_P1_black.mp4
27,colour_boats_30fps_scaled_2RP_P1_black.mp4
