{
    "executorId": "PSNR_V1.0", 
    "asset": {
        "identifier": "cmd_414111148511373_414111148511373_food_market_30fps_scaled_0RP_cut1_854x480_vs_food_market_30fps_scaled_2RP_cut1_854x480_q_854x480"
    }, 
    "frames": [
        {
            "frameNum": 0, 
            "PSNR_score": 31.551956
        }, 
        {
            "frameNum": 1, 
            "PSNR_score": 31.901325
        }, 
        {
            "frameNum": 2, 
            "PSNR_score": 32.030349
        }, 
        {
            "frameNum": 3, 
            "PSNR_score": 32.12586
        }, 
        {
            "frameNum": 4, 
            "PSNR_score": 31.66651
        }, 
        {
            "frameNum": 5, 
            "PSNR_score": 31.971867
        }, 
        {
            "frameNum": 6, 
            "PSNR_score": 31.971295
        }, 
        {
            "frameNum": 7, 
            "PSNR_score": 32.047012
        }, 
        {
            "frameNum": 8, 
            "PSNR_score": 31.722953
        }, 
        {
            "frameNum": 9, 
            "PSNR_score": 31.979811
        }, 
        {
            "frameNum": 10, 
            "PSNR_score": 32.098739
        }, 
        {
            "frameNum": 11, 
            "PSNR_score": 31.803895
        }, 
        {
            "frameNum": 12, 
            "PSNR_score": 31.510918
        }, 
        {
            "frameNum": 13, 
            "PSNR_score": 31.801922
        }, 
        {
            "frameNum": 14, 
            "PSNR_score": 32.026129
        }, 
        {
            "frameNum": 15, 
            "PSNR_score": 31.682096
        }, 
        {
            "frameNum": 16, 
            "PSNR_score": 31.439663
        }, 
        {
            "frameNum": 17, 
            "PSNR_score": 31.789007
        }, 
        {
            "frameNum": 18, 
            "PSNR_score": 31.984358
        }, 
        {
            "frameNum": 19, 
            "PSNR_score": 31.705962
        }, 
        {
            "frameNum": 20, 
            "PSNR_score": 31.423755
        }, 
        {
            "frameNum": 21, 
            "PSNR_score": 31.605625
        }, 
        {
            "frameNum": 22, 
            "PSNR_score": 31.509799
        }, 
        {
            "frameNum": 23, 
            "PSNR_score": 31.715623
        }, 
        {
            "frameNum": 24, 
            "PSNR_score": 31.172908
        }, 
        {
            "frameNum": 25, 
            "PSNR_score": 31.71478
        }, 
        {
            "frameNum": 26, 
            "PSNR_score": 31.285476
        }, 
        {
            "frameNum": 27, 
            "PSNR_score": 31.47461
        }, 
        {
            "frameNum": 28, 
            "PSNR_score": 31.563925
        }, 
        {
            "frameNum": 29, 
            "PSNR_score": 31.806599
        }, 
        {
            "frameNum": 30, 
            "PSNR_score": 31.719891
        }, 
        {
            "frameNum": 31, 
            "PSNR_score": 31.562984
        }, 
        {
            "frameNum": 32, 
            "PSNR_score": 31.718699
        }, 
        {
            "frameNum": 33, 
            "PSNR_score": 31.926447
        }, 
        {
            "frameNum": 34, 
            "PSNR_score": 31.867422
        }, 
        {
            "frameNum": 35, 
            "PSNR_score": 31.904002
        }, 
        {
            "frameNum": 36, 
            "PSNR_score": 32.012423
        }, 
        {
            "frameNum": 37, 
            "PSNR_score": 32.297502
        }, 
        {
            "frameNum": 38, 
            "PSNR_score": 32.303942
        }, 
        {
            "frameNum": 39, 
            "PSNR_score": 32.499988
        }, 
        {
            "frameNum": 40, 
            "PSNR_score": 32.526238
        }, 
        {
            "frameNum": 41, 
            "PSNR_score": 32.885086
        }, 
        {
            "frameNum": 42, 
            "PSNR_score": 32.831234
        }, 
        {
            "frameNum": 43, 
            "PSNR_score": 32.868985
        }, 
        {
            "frameNum": 44, 
            "PSNR_score": 32.856399
        }, 
        {
            "frameNum": 45, 
            "PSNR_score": 33.110048
        }, 
        {
            "frameNum": 46, 
            "PSNR_score": 32.911809
        }, 
        {
            "frameNum": 47, 
            "PSNR_score": 32.749392
        }, 
        {
            "frameNum": 48, 
            "PSNR_score": 32.168164
        }, 
        {
            "frameNum": 49, 
            "PSNR_score": 33.157339
        }, 
        {
            "frameNum": 50, 
            "PSNR_score": 32.777379
        }, 
        {
            "frameNum": 51, 
            "PSNR_score": 32.901872
        }, 
        {
            "frameNum": 52, 
            "PSNR_score": 32.420696
        }, 
        {
            "frameNum": 53, 
            "PSNR_score": 32.80622
        }, 
        {
            "frameNum": 54, 
            "PSNR_score": 33.096691
        }, 
        {
            "frameNum": 55, 
            "PSNR_score": 33.168735
        }, 
        {
            "frameNum": 56, 
            "PSNR_score": 32.798004
        }, 
        {
            "frameNum": 57, 
            "PSNR_score": 33.131716
        }, 
        {
            "frameNum": 58, 
            "PSNR_score": 33.319056
        }, 
        {
            "frameNum": 59, 
            "PSNR_score": 33.272098
        }, 
        {
            "frameNum": 60, 
            "PSNR_score": 32.942443
        }, 
        {
            "frameNum": 61, 
            "PSNR_score": 33.287555
        }, 
        {
            "frameNum": 62, 
            "PSNR_score": 33.434865
        }, 
        {
            "frameNum": 63, 
            "PSNR_score": 33.373522
        }, 
        {
            "frameNum": 64, 
            "PSNR_score": 33.07788
        }, 
        {
            "frameNum": 65, 
            "PSNR_score": 33.420839
        }, 
        {
            "frameNum": 66, 
            "PSNR_score": 33.553372
        }, 
        {
            "frameNum": 67, 
            "PSNR_score": 33.316732
        }, 
        {
            "frameNum": 68, 
            "PSNR_score": 33.050399
        }, 
        {
            "frameNum": 69, 
            "PSNR_score": 33.374145
        }, 
        {
            "frameNum": 70, 
            "PSNR_score": 33.487702
        }, 
        {
            "frameNum": 71, 
            "PSNR_score": 33.335934
        }, 
        {
            "frameNum": 72, 
            "PSNR_score": 33.202862
        }, 
        {
            "frameNum": 73, 
            "PSNR_score": 33.360681
        }, 
        {
            "frameNum": 74, 
            "PSNR_score": 33.579783
        }, 
        {
            "frameNum": 75, 
            "PSNR_score": 33.411833
        }, 
        {
            "frameNum": 76, 
            "PSNR_score": 33.316251
        }, 
        {
            "frameNum": 77, 
            "PSNR_score": 33.562704
        }, 
        {
            "frameNum": 78, 
            "PSNR_score": 33.748693
        }, 
        {
            "frameNum": 79, 
            "PSNR_score": 33.560142
        }, 
        {
            "frameNum": 80, 
            "PSNR_score": 33.283492
        }, 
        {
            "frameNum": 81, 
            "PSNR_score": 33.563778
        }, 
        {
            "frameNum": 82, 
            "PSNR_score": 33.515766
        }, 
        {
            "frameNum": 83, 
            "PSNR_score": 33.689795
        }, 
        {
            "frameNum": 84, 
            "PSNR_score": 33.201877
        }, 
        {
            "frameNum": 85, 
            "PSNR_score": 33.774964
        }, 
        {
            "frameNum": 86, 
            "PSNR_score": 33.59612
        }, 
        {
            "frameNum": 87, 
            "PSNR_score": 33.697432
        }, 
        {
            "frameNum": 88, 
            "PSNR_score": 33.684436
        }, 
        {
            "frameNum": 89, 
            "PSNR_score": 34.06032
        }, 
        {
            "frameNum": 90, 
            "PSNR_score": 34.062004
        }, 
        {
            "frameNum": 91, 
            "PSNR_score": 33.876493
        }, 
        {
            "frameNum": 92, 
            "PSNR_score": 33.67245
        }, 
        {
            "frameNum": 93, 
            "PSNR_score": 34.106215
        }, 
        {
            "frameNum": 94, 
            "PSNR_score": 34.04167
        }, 
        {
            "frameNum": 95, 
            "PSNR_score": 33.790394
        }, 
        {
            "frameNum": 96, 
            "PSNR_score": 33.149133
        }, 
        {
            "frameNum": 97, 
            "PSNR_score": 34.062794
        }, 
        {
            "frameNum": 98, 
            "PSNR_score": 33.310299
        }, 
        {
            "frameNum": 99, 
            "PSNR_score": 33.469969
        }, 
        {
            "frameNum": 100, 
            "PSNR_score": 33.280916
        }, 
        {
            "frameNum": 101, 
            "PSNR_score": 33.568352
        }, 
        {
            "frameNum": 102, 
            "PSNR_score": 33.523458
        }, 
        {
            "frameNum": 103, 
            "PSNR_score": 33.936513
        }, 
        {
            "frameNum": 104, 
            "PSNR_score": 33.138184
        }, 
        {
            "frameNum": 105, 
            "PSNR_score": 33.908504
        }, 
        {
            "frameNum": 106, 
            "PSNR_score": 33.793079
        }, 
        {
            "frameNum": 107, 
            "PSNR_score": 34.145843
        }, 
        {
            "frameNum": 108, 
            "PSNR_score": 33.3391
        }, 
        {
            "frameNum": 109, 
            "PSNR_score": 34.115758
        }, 
        {
            "frameNum": 110, 
            "PSNR_score": 33.780638
        }, 
        {
            "frameNum": 111, 
            "PSNR_score": 34.179085
        }, 
        {
            "frameNum": 112, 
            "PSNR_score": 33.414394
        }, 
        {
            "frameNum": 113, 
            "PSNR_score": 33.858683
        }, 
        {
            "frameNum": 114, 
            "PSNR_score": 33.991635
        }, 
        {
            "frameNum": 115, 
            "PSNR_score": 33.618635
        }, 
        {
            "frameNum": 116, 
            "PSNR_score": 33.422446
        }, 
        {
            "frameNum": 117, 
            "PSNR_score": 33.721842
        }, 
        {
            "frameNum": 118, 
            "PSNR_score": 33.693173
        }, 
        {
            "frameNum": 119, 
            "PSNR_score": 33.526756
        }, 
        {
            "frameNum": 120, 
            "PSNR_score": 33.728609
        }, 
        {
            "frameNum": 121, 
            "PSNR_score": 33.501535
        }, 
        {
            "frameNum": 122, 
            "PSNR_score": 33.235198
        }, 
        {
            "frameNum": 123, 
            "PSNR_score": 33.364107
        }, 
        {
            "frameNum": 124, 
            "PSNR_score": 33.402982
        }, 
        {
            "frameNum": 125, 
            "PSNR_score": 33.64175
        }, 
        {
            "frameNum": 126, 
            "PSNR_score": 33.713348
        }, 
        {
            "frameNum": 127, 
            "PSNR_score": 33.486741
        }, 
        {
            "frameNum": 128, 
            "PSNR_score": 33.779614
        }, 
        {
            "frameNum": 129, 
            "PSNR_score": 33.922383
        }, 
        {
            "frameNum": 130, 
            "PSNR_score": 33.670437
        }, 
        {
            "frameNum": 131, 
            "PSNR_score": 33.743947
        }, 
        {
            "frameNum": 132, 
            "PSNR_score": 33.751452
        }, 
        {
            "frameNum": 133, 
            "PSNR_score": 33.609632
        }, 
        {
            "frameNum": 134, 
            "PSNR_score": 34.04999
        }, 
        {
            "frameNum": 135, 
            "PSNR_score": 33.906468
        }, 
        {
            "frameNum": 136, 
            "PSNR_score": 34.391407
        }, 
        {
            "frameNum": 137, 
            "PSNR_score": 34.697982
        }, 
        {
            "frameNum": 138, 
            "PSNR_score": 34.609606
        }, 
        {
            "frameNum": 139, 
            "PSNR_score": 34.0707
        }, 
        {
            "frameNum": 140, 
            "PSNR_score": 34.447021
        }, 
        {
            "frameNum": 141, 
            "PSNR_score": 35.162369
        }, 
        {
            "frameNum": 142, 
            "PSNR_score": 34.534927
        }, 
        {
            "frameNum": 143, 
            "PSNR_score": 33.495558
        }, 
        {
            "frameNum": 144, 
            "PSNR_score": 34.381844
        }, 
        {
            "frameNum": 145, 
            "PSNR_score": 34.246755
        }, 
        {
            "frameNum": 146, 
            "PSNR_score": 34.016549
        }, 
        {
            "frameNum": 147, 
            "PSNR_score": 32.887525
        }, 
        {
            "frameNum": 148, 
            "PSNR_score": 33.886204
        }, 
        {
            "frameNum": 149, 
            "PSNR_score": 34.195676
        }, 
        {
            "frameNum": 150, 
            "PSNR_score": 33.727109
        }, 
        {
            "frameNum": 151, 
            "PSNR_score": 32.686524
        }, 
        {
            "frameNum": 152, 
            "PSNR_score": 33.662849
        }, 
        {
            "frameNum": 153, 
            "PSNR_score": 33.326211
        }, 
        {
            "frameNum": 154, 
            "PSNR_score": 34.033948
        }, 
        {
            "frameNum": 155, 
            "PSNR_score": 33.169613
        }, 
        {
            "frameNum": 156, 
            "PSNR_score": 33.84371
        }, 
        {
            "frameNum": 157, 
            "PSNR_score": 34.19261
        }, 
        {
            "frameNum": 158, 
            "PSNR_score": 33.999323
        }, 
        {
            "frameNum": 159, 
            "PSNR_score": 33.426919
        }, 
        {
            "frameNum": 160, 
            "PSNR_score": 34.219369
        }, 
        {
            "frameNum": 161, 
            "PSNR_score": 33.905294
        }, 
        {
            "frameNum": 162, 
            "PSNR_score": 34.029267
        }, 
        {
            "frameNum": 163, 
            "PSNR_score": 33.91996
        }, 
        {
            "frameNum": 164, 
            "PSNR_score": 33.995976
        }, 
        {
            "frameNum": 165, 
            "PSNR_score": 33.781573
        }, 
        {
            "frameNum": 166, 
            "PSNR_score": 33.459874
        }, 
        {
            "frameNum": 167, 
            "PSNR_score": 34.015109
        }, 
        {
            "frameNum": 168, 
            "PSNR_score": 33.714952
        }, 
        {
            "frameNum": 169, 
            "PSNR_score": 33.718057
        }, 
        {
            "frameNum": 170, 
            "PSNR_score": 33.496965
        }, 
        {
            "frameNum": 171, 
            "PSNR_score": 33.963479
        }, 
        {
            "frameNum": 172, 
            "PSNR_score": 33.887416
        }, 
        {
            "frameNum": 173, 
            "PSNR_score": 34.007301
        }, 
        {
            "frameNum": 174, 
            "PSNR_score": 33.754444
        }, 
        {
            "frameNum": 175, 
            "PSNR_score": 34.322667
        }, 
        {
            "frameNum": 176, 
            "PSNR_score": 33.999444
        }, 
        {
            "frameNum": 177, 
            "PSNR_score": 34.054153
        }, 
        {
            "frameNum": 178, 
            "PSNR_score": 33.669129
        }, 
        {
            "frameNum": 179, 
            "PSNR_score": 33.437661
        }
    ], 
    "aggregate": {
        "PSNR_score": 33.197628566666666, 
        "method": "mean"
    }
}
