{
    "executorId": "PSNR_V1.0", 
    "asset": {
        "identifier": "cmd_5501101133499512_5501101133499512_cow_30fps_scaled_0RP_854x480_vs_cow_30fps_scaled_2RP_854x480_q_854x480"
    }, 
    "frames": [
        {
            "frameNum": 0, 
            "PSNR_score": 35.576787
        }, 
        {
            "frameNum": 1, 
            "PSNR_score": 35.11724
        }, 
        {
            "frameNum": 2, 
            "PSNR_score": 35.37137
        }, 
        {
            "frameNum": 3, 
            "PSNR_score": 35.432919
        }, 
        {
            "frameNum": 4, 
            "PSNR_score": 36.307615
        }, 
        {
            "frameNum": 5, 
            "PSNR_score": 35.99869
        }, 
        {
            "frameNum": 6, 
            "PSNR_score": 36.470042
        }, 
        {
            "frameNum": 7, 
            "PSNR_score": 36.395548
        }, 
        {
            "frameNum": 8, 
            "PSNR_score": 37.411007
        }, 
        {
            "frameNum": 9, 
            "PSNR_score": 37.341759
        }, 
        {
            "frameNum": 10, 
            "PSNR_score": 37.622942
        }, 
        {
            "frameNum": 11, 
            "PSNR_score": 37.723654
        }, 
        {
            "frameNum": 12, 
            "PSNR_score": 38.554418
        }, 
        {
            "frameNum": 13, 
            "PSNR_score": 38.54304
        }, 
        {
            "frameNum": 14, 
            "PSNR_score": 38.389088
        }, 
        {
            "frameNum": 15, 
            "PSNR_score": 39.778201
        }, 
        {
            "frameNum": 16, 
            "PSNR_score": 39.052304
        }, 
        {
            "frameNum": 17, 
            "PSNR_score": 39.754061
        }, 
        {
            "frameNum": 18, 
            "PSNR_score": 39.53964
        }, 
        {
            "frameNum": 19, 
            "PSNR_score": 40.8502
        }, 
        {
            "frameNum": 20, 
            "PSNR_score": 40.035574
        }, 
        {
            "frameNum": 21, 
            "PSNR_score": 40.581902
        }, 
        {
            "frameNum": 22, 
            "PSNR_score": 40.518833
        }, 
        {
            "frameNum": 23, 
            "PSNR_score": 41.631791
        }, 
        {
            "frameNum": 24, 
            "PSNR_score": 40.147505
        }, 
        {
            "frameNum": 25, 
            "PSNR_score": 40.221227
        }, 
        {
            "frameNum": 26, 
            "PSNR_score": 39.993035
        }, 
        {
            "frameNum": 27, 
            "PSNR_score": 41.013906
        }, 
        {
            "frameNum": 28, 
            "PSNR_score": 39.890939
        }, 
        {
            "frameNum": 29, 
            "PSNR_score": 40.049544
        }, 
        {
            "frameNum": 30, 
            "PSNR_score": 39.805283
        }, 
        {
            "frameNum": 31, 
            "PSNR_score": 40.723878
        }, 
        {
            "frameNum": 32, 
            "PSNR_score": 39.274642
        }, 
        {
            "frameNum": 33, 
            "PSNR_score": 39.475275
        }, 
        {
            "frameNum": 34, 
            "PSNR_score": 39.092723
        }, 
        {
            "frameNum": 35, 
            "PSNR_score": 39.546176
        }, 
        {
            "frameNum": 36, 
            "PSNR_score": 38.687247
        }, 
        {
            "frameNum": 37, 
            "PSNR_score": 38.545543
        }, 
        {
            "frameNum": 38, 
            "PSNR_score": 38.344732
        }, 
        {
            "frameNum": 39, 
            "PSNR_score": 38.559962
        }, 
        {
            "frameNum": 40, 
            "PSNR_score": 37.710426
        }, 
        {
            "frameNum": 41, 
            "PSNR_score": 37.804911
        }, 
        {
            "frameNum": 42, 
            "PSNR_score": 37.73093
        }, 
        {
            "frameNum": 43, 
            "PSNR_score": 38.020792
        }, 
        {
            "frameNum": 44, 
            "PSNR_score": 37.397589
        }, 
        {
            "frameNum": 45, 
            "PSNR_score": 37.64551
        }, 
        {
            "frameNum": 46, 
            "PSNR_score": 37.386625
        }, 
        {
            "frameNum": 47, 
            "PSNR_score": 37.482378
        }, 
        {
            "frameNum": 48, 
            "PSNR_score": 36.687432
        }, 
        {
            "frameNum": 49, 
            "PSNR_score": 36.777418
        }, 
        {
            "frameNum": 50, 
            "PSNR_score": 36.39478
        }, 
        {
            "frameNum": 51, 
            "PSNR_score": 36.493706
        }, 
        {
            "frameNum": 52, 
            "PSNR_score": 35.745923
        }, 
        {
            "frameNum": 53, 
            "PSNR_score": 35.873585
        }, 
        {
            "frameNum": 54, 
            "PSNR_score": 35.700315
        }, 
        {
            "frameNum": 55, 
            "PSNR_score": 35.534322
        }, 
        {
            "frameNum": 56, 
            "PSNR_score": 34.874409
        }, 
        {
            "frameNum": 57, 
            "PSNR_score": 35.132763
        }, 
        {
            "frameNum": 58, 
            "PSNR_score": 34.869956
        }, 
        {
            "frameNum": 59, 
            "PSNR_score": 34.98863
        }, 
        {
            "frameNum": 60, 
            "PSNR_score": 34.378271
        }, 
        {
            "frameNum": 61, 
            "PSNR_score": 34.796422
        }, 
        {
            "frameNum": 62, 
            "PSNR_score": 34.653337
        }, 
        {
            "frameNum": 63, 
            "PSNR_score": 35.192313
        }, 
        {
            "frameNum": 64, 
            "PSNR_score": 34.603064
        }, 
        {
            "frameNum": 65, 
            "PSNR_score": 35.087865
        }, 
        {
            "frameNum": 66, 
            "PSNR_score": 34.880554
        }, 
        {
            "frameNum": 67, 
            "PSNR_score": 35.514299
        }, 
        {
            "frameNum": 68, 
            "PSNR_score": 34.986618
        }, 
        {
            "frameNum": 69, 
            "PSNR_score": 35.547447
        }, 
        {
            "frameNum": 70, 
            "PSNR_score": 35.842422
        }, 
        {
            "frameNum": 71, 
            "PSNR_score": 35.946241
        }, 
        {
            "frameNum": 72, 
            "PSNR_score": 35.619232
        }, 
        {
            "frameNum": 73, 
            "PSNR_score": 36.350651
        }, 
        {
            "frameNum": 74, 
            "PSNR_score": 36.843015
        }, 
        {
            "frameNum": 75, 
            "PSNR_score": 36.506298
        }, 
        {
            "frameNum": 76, 
            "PSNR_score": 35.86079
        }, 
        {
            "frameNum": 77, 
            "PSNR_score": 37.198035
        }, 
        {
            "frameNum": 78, 
            "PSNR_score": 36.544497
        }, 
        {
            "frameNum": 79, 
            "PSNR_score": 37.330855
        }, 
        {
            "frameNum": 80, 
            "PSNR_score": 38.165995
        }, 
        {
            "frameNum": 81, 
            "PSNR_score": 38.159692
        }, 
        {
            "frameNum": 82, 
            "PSNR_score": 38.010272
        }, 
        {
            "frameNum": 83, 
            "PSNR_score": 38.454113
        }, 
        {
            "frameNum": 84, 
            "PSNR_score": 38.573465
        }, 
        {
            "frameNum": 85, 
            "PSNR_score": 38.354291
        }, 
        {
            "frameNum": 86, 
            "PSNR_score": 38.242258
        }, 
        {
            "frameNum": 87, 
            "PSNR_score": 38.800515
        }, 
        {
            "frameNum": 88, 
            "PSNR_score": 39.059507
        }, 
        {
            "frameNum": 89, 
            "PSNR_score": 38.818186
        }, 
        {
            "frameNum": 90, 
            "PSNR_score": 38.264867
        }, 
        {
            "frameNum": 91, 
            "PSNR_score": 38.811563
        }, 
        {
            "frameNum": 92, 
            "PSNR_score": 39.180818
        }, 
        {
            "frameNum": 93, 
            "PSNR_score": 38.663653
        }, 
        {
            "frameNum": 94, 
            "PSNR_score": 38.008735
        }, 
        {
            "frameNum": 95, 
            "PSNR_score": 38.207007
        }, 
        {
            "frameNum": 96, 
            "PSNR_score": 38.032754
        }, 
        {
            "frameNum": 97, 
            "PSNR_score": 37.711809
        }, 
        {
            "frameNum": 98, 
            "PSNR_score": 37.019376
        }, 
        {
            "frameNum": 99, 
            "PSNR_score": 37.140743
        }, 
        {
            "frameNum": 100, 
            "PSNR_score": 37.100755
        }, 
        {
            "frameNum": 101, 
            "PSNR_score": 36.847359
        }, 
        {
            "frameNum": 102, 
            "PSNR_score": 36.367471
        }, 
        {
            "frameNum": 103, 
            "PSNR_score": 36.581558
        }, 
        {
            "frameNum": 104, 
            "PSNR_score": 36.14343
        }, 
        {
            "frameNum": 105, 
            "PSNR_score": 36.081175
        }, 
        {
            "frameNum": 106, 
            "PSNR_score": 35.724551
        }, 
        {
            "frameNum": 107, 
            "PSNR_score": 35.871152
        }, 
        {
            "frameNum": 108, 
            "PSNR_score": 35.609424
        }, 
        {
            "frameNum": 109, 
            "PSNR_score": 35.639071
        }, 
        {
            "frameNum": 110, 
            "PSNR_score": 35.222986
        }, 
        {
            "frameNum": 111, 
            "PSNR_score": 35.686466
        }, 
        {
            "frameNum": 112, 
            "PSNR_score": 35.384157
        }, 
        {
            "frameNum": 113, 
            "PSNR_score": 35.443145
        }, 
        {
            "frameNum": 114, 
            "PSNR_score": 35.26427
        }, 
        {
            "frameNum": 115, 
            "PSNR_score": 35.495355
        }, 
        {
            "frameNum": 116, 
            "PSNR_score": 35.293167
        }, 
        {
            "frameNum": 117, 
            "PSNR_score": 35.437183
        }, 
        {
            "frameNum": 118, 
            "PSNR_score": 35.405296
        }, 
        {
            "frameNum": 119, 
            "PSNR_score": 35.297419
        }, 
        {
            "frameNum": 120, 
            "PSNR_score": 35.504479
        }, 
        {
            "frameNum": 121, 
            "PSNR_score": 35.624131
        }, 
        {
            "frameNum": 122, 
            "PSNR_score": 35.194084
        }, 
        {
            "frameNum": 123, 
            "PSNR_score": 35.225141
        }, 
        {
            "frameNum": 124, 
            "PSNR_score": 34.686942
        }, 
        {
            "frameNum": 125, 
            "PSNR_score": 35.749068
        }, 
        {
            "frameNum": 126, 
            "PSNR_score": 35.28464
        }, 
        {
            "frameNum": 127, 
            "PSNR_score": 35.659706
        }, 
        {
            "frameNum": 128, 
            "PSNR_score": 35.111902
        }, 
        {
            "frameNum": 129, 
            "PSNR_score": 35.434882
        }, 
        {
            "frameNum": 130, 
            "PSNR_score": 36.698676
        }, 
        {
            "frameNum": 131, 
            "PSNR_score": 35.00241
        }, 
        {
            "frameNum": 132, 
            "PSNR_score": 34.725102
        }, 
        {
            "frameNum": 133, 
            "PSNR_score": 34.548243
        }, 
        {
            "frameNum": 134, 
            "PSNR_score": 34.606977
        }, 
        {
            "frameNum": 135, 
            "PSNR_score": 34.094301
        }, 
        {
            "frameNum": 136, 
            "PSNR_score": 33.915867
        }, 
        {
            "frameNum": 137, 
            "PSNR_score": 33.988419
        }, 
        {
            "frameNum": 138, 
            "PSNR_score": 34.100996
        }, 
        {
            "frameNum": 139, 
            "PSNR_score": 34.108912
        }, 
        {
            "frameNum": 140, 
            "PSNR_score": 33.779328
        }, 
        {
            "frameNum": 141, 
            "PSNR_score": 33.487153
        }, 
        {
            "frameNum": 142, 
            "PSNR_score": 32.743273
        }, 
        {
            "frameNum": 143, 
            "PSNR_score": 34.151977
        }, 
        {
            "frameNum": 144, 
            "PSNR_score": 33.298867
        }, 
        {
            "frameNum": 145, 
            "PSNR_score": 33.775321
        }, 
        {
            "frameNum": 146, 
            "PSNR_score": 32.845578
        }, 
        {
            "frameNum": 147, 
            "PSNR_score": 34.054771
        }, 
        {
            "frameNum": 148, 
            "PSNR_score": 33.104621
        }, 
        {
            "frameNum": 149, 
            "PSNR_score": 33.623772
        }, 
        {
            "frameNum": 150, 
            "PSNR_score": 32.658167
        }, 
        {
            "frameNum": 151, 
            "PSNR_score": 33.913756
        }, 
        {
            "frameNum": 152, 
            "PSNR_score": 33.116229
        }, 
        {
            "frameNum": 153, 
            "PSNR_score": 33.545503
        }, 
        {
            "frameNum": 154, 
            "PSNR_score": 32.604754
        }, 
        {
            "frameNum": 155, 
            "PSNR_score": 33.91593
        }, 
        {
            "frameNum": 156, 
            "PSNR_score": 33.083528
        }, 
        {
            "frameNum": 157, 
            "PSNR_score": 33.533636
        }, 
        {
            "frameNum": 158, 
            "PSNR_score": 32.680286
        }, 
        {
            "frameNum": 159, 
            "PSNR_score": 33.978507
        }, 
        {
            "frameNum": 160, 
            "PSNR_score": 33.181856
        }, 
        {
            "frameNum": 161, 
            "PSNR_score": 33.400424
        }, 
        {
            "frameNum": 162, 
            "PSNR_score": 33.491979
        }, 
        {
            "frameNum": 163, 
            "PSNR_score": 33.657705
        }, 
        {
            "frameNum": 164, 
            "PSNR_score": 33.370063
        }, 
        {
            "frameNum": 165, 
            "PSNR_score": 33.510359
        }, 
        {
            "frameNum": 166, 
            "PSNR_score": 33.434799
        }, 
        {
            "frameNum": 167, 
            "PSNR_score": 33.620257
        }, 
        {
            "frameNum": 168, 
            "PSNR_score": 33.254889
        }, 
        {
            "frameNum": 169, 
            "PSNR_score": 33.356952
        }, 
        {
            "frameNum": 170, 
            "PSNR_score": 33.337337
        }, 
        {
            "frameNum": 171, 
            "PSNR_score": 33.570663
        }, 
        {
            "frameNum": 172, 
            "PSNR_score": 33.076129
        }, 
        {
            "frameNum": 173, 
            "PSNR_score": 33.471581
        }, 
        {
            "frameNum": 174, 
            "PSNR_score": 33.246802
        }, 
        {
            "frameNum": 175, 
            "PSNR_score": 33.615551
        }, 
        {
            "frameNum": 176, 
            "PSNR_score": 33.202487
        }, 
        {
            "frameNum": 177, 
            "PSNR_score": 33.458134
        }, 
        {
            "frameNum": 178, 
            "PSNR_score": 33.312807
        }, 
        {
            "frameNum": 179, 
            "PSNR_score": 32.753885
        }
    ], 
    "aggregate": {
        "PSNR_score": 36.15202428333333, 
        "method": "mean"
    }
}
