,RP1,RP2,RP3,RP4
Crowd,2.215686274509804,1.1372549019607843,0.5980392156862745,0.30392156862745096
ElFuente,2.0886274509803924,1.0011764705882353,0.32666666666666666,0.20901960784313725
FoxBird,1.3176271186440678,0.4625423728813559,0.12152542372881356,-0.019322033898305085
Seeking,1.4595407326407872,0.7039365773646802,0.2505467468562056,-0.03225806451612903
Boats,1.2525027808676308,0.5166852057842046,0.10539488320355951,-0.02586206896551724
Cow,1.4735329703569269,0.5930127041742287,0.15653357531760437,-0.09543254688445252
Food,1.4089314194577351,0.46283891547049444,-0.020733652312599687,-0.11722488038277512
People,2.5106951871657754,1.7679144385026737,0.5966131907308379,0.8713012477718359
